%YAML 1.1
%TAG !u! tag:unity3d.com,2011:
--- !u!1001 &100100000
Prefab:
  m_ObjectHideFlags: 1
  serializedVersion: 2
  m_Modification:
    m_TransformParent: {fileID: 0}
    m_Modifications: []
    m_RemovedComponents: []
  m_ParentPrefab: {fileID: 0}
  m_RootGameObject: {fileID: 1122902736406776}
  m_IsPrefabParent: 1
--- !u!1 &1122902736406776
GameObject:
  m_ObjectHideFlags: 0
  m_PrefabParentObject: {fileID: 0}
  m_PrefabInternal: {fileID: 100100000}
  serializedVersion: 5
  m_Component:
  - component: {fileID: 4324426435145814}
  - component: {fileID: 65379070967945946}
  - component: {fileID: 114742910423383132}
  m_Layer: 0
  m_Name: SprintSpot
  m_TagString: Untagged
  m_Icon: {fileID: 0}
  m_NavMeshLayer: 0
  m_StaticEditorFlags: 0
  m_IsActive: 1
--- !u!4 &4324426435145814
Transform:
  m_ObjectHideFlags: 1
  m_PrefabParentObject: {fileID: 0}
  m_PrefabInternal: {fileID: 100100000}
  m_GameObject: {fileID: 1122902736406776}
  m_LocalRotation: {x: -0.069734275, y: 0.24988453, z: -0.110812314, w: 0.9593829}
  m_LocalPosition: {x: -16.72, y: 83.32, z: 2399.66}
  m_LocalScale: {x: 1, y: 1, z: 1}
  m_Children: []
  m_Father: {fileID: 0}
  m_RootOrder: 0
  m_LocalEulerAnglesHint: {x: -4.498, y: 29.766, z: -14.373001}
--- !u!65 &65379070967945946
BoxCollider:
  m_ObjectHideFlags: 1
  m_PrefabParentObject: {fileID: 0}
  m_PrefabInternal: {fileID: 100100000}
  m_GameObject: {fileID: 1122902736406776}
  m_Material: {fileID: 0}
  m_IsTrigger: 1
  m_Enabled: 1
  serializedVersion: 2
  m_Size: {x: 313.43097, y: 25.58979, z: 21.286812}
  m_Center: {x: -48.216553, y: -0.5065672, z: 2.008043}
--- !u!114 &114742910423383132
MonoBehaviour:
  m_ObjectHideFlags: 1
  m_PrefabParentObject: {fileID: 0}
  m_PrefabInternal: {fileID: 100100000}
  m_GameObject: {fileID: 1122902736406776}
  m_Enabled: 1
  m_EditorHideFlags: 0
  m_Script: {fileID: 11500000, guid: 1b016cbe355e4444e806c90a65d07e80, type: 3}
  m_Name: 
  m_EditorClassIdentifier: 
  sprintMultiplier: 2
